﻿team_position,team_name,team_ranking
1,Ireland,91.82
2,France,90.47
3,New Zealand,88.98
4,South Africa,88.97
5,Scotland,82.77
6,England,82.12
7,Australia,81.8
8,Argentina,80.72
9,Wales,78.08
10,Japan,77.39
11,Georgia,76.23
12,Samoa,76.03
13,Fiji,74.84
14,Italy,74.63
15,Tonga,71.21
16,Portugal,67.62
17,Uruguay,66.24
18,United States,65.92
19,Romania,65.85
20,Spain,64.05
21,Namibia,61.6
22,Chile,60.89
23,Canada,60.46
24,Hong Kong,59.8
25,Russian Federation,58.06
26,Netherlands,55.84
27,Switzerland,55.72
28,Brazil,55.23
29,Belgium,54.58
30,Korea,53.46
31,Zimbabwe,52.43
32,Germany,52.32
33,Kenya,51.79
34,Poland,51.54
35,Czech Republic,50.78
36,Ukraine,49.3
37,Colombia,48.69
38,Tunisia,48.55
39,Sweden,48.31
40,Paraguay,48.14
41,Philippines,47.8
42,Croatia,47.51
43,Uganda,47.25
44,Madagascar,46.89
45,Malta,46.75
46,Sri Lanka,46.73
47,Morocco,46.33
48,Cote D'Ivoire,46.24
49,Mexico,45.82
50,Trinidad & Tobago,45.51
51,Lithuania,45.39
52,Malaysia,45.14
53,Cook Islands,45.11
54,Cayman Islands,44.37
55,Singapore,44.05
56,Senegal,43.22
57,"Moldova, Republic of",43.04
58,Guyana,42.86
59,Bulgaria,42.41
60,Latvia,41.4
61,Israel,41.24
62,United Arab Emirates,41.23
63,Kazakhstan,41.16
64,Luxembourg,41.08
65,Chinese Taipei,39.23
66,Jamaica,39
67,Bermuda,38.91
68,Zambia,38.83
69,Nigeria,38.37
70,Hungary,37.92
71,Serbia,36.66
72,Finland,36.59
73,Denmark,36.42
74,Guam,36.38
75,Peru,36.35
76,Algeria,36.25
77,Botswana,36.21
78,Venezuela,35.87
79,Thailand,35.49
80,Slovenia,35.43
81,St Vincent and the Grenadines,34.91
82,People's Republic of China,34.91
83,Barbados,34.72
84,Papua New Guinea,33.68
85,Ghana,33.27
86,India,33.15
87,Austria,33.03
88,Andorra,32.07
89,Uzbekistan,31.28
90,Burkina Faso,31.05
91,Pakistan,30.78
92,Mauritius,30.56
93,Bosnia and Herzegovina,30.47
94,Laos People's Democratic Republic,30
95,"Iran, Islamic Republic of",30
96,Rwanda,29.78
97,Costa Rica,29.36
98,Niue Island,28.63
99,Bahamas,27.76
100,Burundi,26.16
101,Eswatini,26.04
102,Norway,25.95
103,Solomon Islands,23.97
104,Cameroon,23.12
105,Indonesia,21.95
106,Monaco,17.17
107,Greece,16.55
108,Vanuatu,15.29
109,American Samoa,13.53
