{
  "hash": "a883f4b99e89c36b8da54d96908911d5",
  "result": {
    "markdown": "---\ntitle: \"Rugby World Cup 2023\"\nauthor: \"Hardi Koortzen\"\ndate: \"2023-10-19\"\nbibliography: ../references.bib\ncsl: ../oxford-university-press-scimed-numeric.csl\ncategories: [R, data.table, elo, rugby, prediction, rwc]\nexecute:\n    message: false\n    warning: false\n    echo: false\neditor:\n    render-on-save: true\n---\n\n\nIt is that time again, the [Rugby World Cup\n2023](https://en.wikipedia.org/wiki/2023_Rugby_World_Cup). I am, as usual, late\nto the party. Although I have been watching this event, I have yet to make a\nprediction. I support South Africa, and therefore, they will win 😁. That is\nwhat my heart is saying, but what about the reality? Since I am using `R`\n[@base], I can predict the matches.\n\nFirst, I need to obtain a way to predict the score from a match. I have several\nyears' worth of data. Therefore, let's see what I can do here. I will only use\ninternational teams playing rugby matches. I have also excluded all Country A\nteams from the data. Those differ from the nation's top team. Using the `elo`\n[@elo] package to predict the probability of a team winning, with the\n`elo.run()` function as follows.\n\n``` r\nrugby_data |>\n    elo.run(score(home_score, away_score) ~ adjust(home_team, venue) +\n                away_team + k(fcase(venue == 0 &\n                                        abs(home_score - away_score) > 15, 60,\n                                    venue == 0 &\n                                        abs(home_score - away_score) == 0, 20,\n                                    venue == 0 &\n                                        abs(home_score - away_score) < 16, 40,\n                                    abs(home_score - away_score) > 15, 30,\n                                    abs(home_score - away_score) == 0, 10,\n                                    abs(home_score - away_score) < 16, 20)),\n            data = _, initial.elos = 2500) ->\n    results\n\nrugby_data |>\n    DT(, home_predict := predict(results, newdata = .SD)) |>\n    DT(, away_predict := 1 - home_predict) |>\n    DT(is.element(home_team, rwc_2023)) |>\n    DT(is.element(away_team, rwc_2023)) |>\n    DT() ->\n    rugby_data\n```\n\nIn the code above, I am using the `DT()` function to *pipe* a `data.table`\nobject. This function is defined as follows: `` DT <- `[` ``. One can, of\ncourse, use the `data.table` piping `dt[...][...]` notation. However, this is\nnot a *pipe*-friendly notation. I find it easier with the `DT()` function.\n\nThe Elo ranking calculated this way differs from the Rugby World Cup rankings,\nbut it will do here. The rankings of the teams before the Rugby World Cup can be\nseen below.\n\n\n```{ojs}\nteamRankings = FileAttachment(\"../data/rugby/sim_data_2023/team_ranking.csv\")\n                    .csv({typed: true});\n\npoolAMatches = FileAttachment(\"../data/rugby/sim_data_2023/pool_a_matches.csv\")\n                    .csv({typed: true});\n\npoolA = FileAttachment(\"../data/rugby/sim_data_2023/pool_a.csv\")\n            .csv({typed: true});\n\npoolB = FileAttachment(\"../data/rugby/sim_data_2023/pool_b.csv\")\n            .csv({typed: true});\n\npoolC = FileAttachment(\"../data/rugby/sim_data_2023/pool_c.csv\")\n            .csv({typed: true});\n\npoolD = FileAttachment(\"../data/rugby/sim_data_2023/pool_d.csv\")\n            .csv({typed: true});\n\nquarterFinal1 = FileAttachment(\"../data/rugby/sim_data_2023/quarter_final_1.csv\")\n                    .csv({typed: true});\n\nquarterFinal2 = FileAttachment(\"../data/rugby/sim_data_2023/quarter_final_2.csv\")\n                    .csv({typed: true});\n\nquarterFinal3 = FileAttachment(\"../data/rugby/sim_data_2023/quarter_final_3.csv\")\n                    .csv({typed: true});\n\nquarterFinal4 = FileAttachment(\"../data/rugby/sim_data_2023/quarter_final_4.csv\")\n                    .csv({typed: true});\n\nsemiFinal1 = FileAttachment(\"../data/rugby/sim_data_2023/semi_final_1.csv\")\n                .csv({typed: true});\n\nsemiFinal2 = FileAttachment(\"../data/rugby/sim_data_2023/semi_final_2.csv\")\n                .csv({typed: true});\n\nbronzeFinal = FileAttachment(\"../data/rugby/sim_data_2023/final_1.csv\")\n                    .csv({typed: true});\n\nfinalFinal = FileAttachment(\"../data/rugby/sim_data_2023/final_2.csv\")\n                    .csv({typed: true});\n```\n\n```{ojs}\n//| label: fig-team-ranking\n//| fig-cap: The current Elo ranking of the teams\n//| fig-cap-location: margin\nInputs.table(\n    teamRankings,\n    {\n        align: {\n            team_name: \"center\",\n            team_ranking: \"center\"\n        },\n        header: {\n            team_name: \"Nation\",\n            team_ranking: \"Elo Ranking\"\n        },\n        rows: 100,\n        layout: \"fixed\"\n    }\n);\n```\n\n\nUsing the `lm()` function to predict the home scores as follows:\n\n``` r\nrugby_data |>\n    DT(, .(match_date, home_team, home_score, home_elo, home_predict,\n           away_team, away_score, away_elo, away_predict)) |>\n    lm(home_score ~ home_team + away_team + away_elo + match_date +\n           home_elo * home_predict, data = _) ->\n    lm_home\n```\n\nRugby predictions are rare on the internet compared to that of football. I have\nfound several and tried to implement them. One of these used interesting ways of\npredicting the score. I found, however, that it ranks the team too much on their\ncurrent ranking, producing the final result that mimics the current ranking. It\nshould be that way. However, rugby is a strange sport, and the history between\nthe two nations reflects this outcome better. Therefore, the use of the `lm()`\nfunction here. The `lm()` function will use all the data and fit a linear model.\nNext, it is easy to predict the `home_score`, as the data consists of all these\nvariables. In rugby, bonus points are awarded for teams losing by seven or fewer\npoints and for four tries scored. The score prediction only predicts the final\nscore, not how that score was achieved. I need to find a way of decomposing the\nfinal score into penalties or drop goals (worth three points), unconverted tries\n(worth five points), and converted tries (worth seven points). This was\ndifficult for me. Even though I have used `R` [@base] since 2014, I struggled to\ndecompose the score effectively.\n\nTo decompose a score, we need a few things:\n\n1.  The number of penalties.\n2.  The number of converted tries.\n3.  The number of unconverted tries.\n4.  All these numbers need to be integers. We cannot score 0.23 tries.\n\nThis score decomposition is easy in `Excel` using the `Solver` add-in. One can\nenforce the integer constraint. This is the part I found difficult to replicate\nin `R`. Using the `optim()` function, I could decompose the score. However, the\nnumbers were not integers. Therefore, I cannot use it. Using the\n[`lpSolve`](https://cran.r-project.org/package=lpSolve) package, I was able to\ndo it as follows:\n\n\n::: {.cell}\n\n:::\n\n\n``` r\nlpSolve::lp(\"max\", c(3, 1, 1), matrix(c(7, 5, 3), nrow = 1, byrow = TRUE),\n            c(\"=\"), c(64), all.int = TRUE)\n```\n\nLooking at the code, it uses the `lp()` function from the `lpSolve` package. We\nwant to maximise the result, `\"max\"`, with values of `c(3, 1, 1)` for each of\nthe score types. Setting converted tries to be three times more valuable than\nthe rest. It should use the constraint matrix,\n`matrix(c(7, 5, 3), nrow = 1, byrow = TRUE)`, the number of points for each\nscore type, to be equal to (`c(\"=\")`), the score, `c(64)`, with all values as\nintegers, `all.int = TRUE`. After converging, the score consists of\n7 converted tries, 0 unconverted tries and\n5 penalties. The output is shown below.\n\n\n::: {.cell}\n::: {.cell-output .cell-output-stdout}\n```\n[1] 7 0 5\n```\n:::\n:::\n\n\nThis solution is one of many to achieve 64. Since we only want an indication,\nthere is no need to do this exhaustively and find the best one. This will do.\n\nNext, all these pieces need to be put together to predict the outcomes of the\nmatches. This is shown in the following code section.\n\n``` r\ndata.table(match_date = c(\"2023-09-08\", \"2023-09-09\", \"2023-09-14\",\n                          \"2023-09-15\", \"2023-09-20\", \"2023-09-21\",\n                          \"2023-09-27\", \"2023-09-29\", \"2023-10-05\",\n                          \"2023-10-06\") |>\n               as.Date(),\n           home_team = c(\"France\", \"Italy\", \"France\", \"New Zealand\",\n                         \"Italy\", \"France\", \"Uruguay\", \"New Zealand\",\n                         \"New Zealand\", \"France\"),\n           away_team = c(\"New Zealand\", \"Namibia\", \"Uruguay\", \"Namibia\",\n                         \"Uruguay\", \"Namibia\", \"Namibia\", \"Italy\",\n                         \"Uruguay\", \"Italy\"), venue = 0) |>\n    DT(, home_predict := predict(results, newdata = .SD)) |>\n    DT(, away_predict := 1 - home_predict) |>\n    DT() |>\n    merge(team_ranking, by.x = \"home_team\", by.y = \"team_name\",\n          all.x = TRUE) |>\n    setnames(\"team_ranking\", \"home_elo\") |>\n    merge(team_ranking, by.x = \"away_team\", by.y = \"team_name\",\n          all.x = TRUE) |>\n    setnames(\"team_ranking\", \"away_elo\") |>\n    DT(, home_score := predict(lm_home, newdata = .SD) |>\n           suppressWarnings() |>\n           round() |>\n           pmax(0)) |>\n    DT(, away_score := predict(lm_away, newdata = .SD) |>\n           suppressWarnings() |>\n           round() |>\n           pmax(0)) |>\n    DT(, `:=`(home_tries = decompose_score(home_score, \"tries\"),\n              away_tries = decompose_score(away_score, \"tries\"))) |>\n    DT(order(match_date)) |>\n    DT() ->\n    pool_a_matches\n\npool_a_matches |>\n    DT(, winner := fifelse(home_score > away_score, home_team,\n                           away_team)) |>\n    DT(, pf := fifelse(home_score >= away_score, home_score, away_score)) |>\n    DT(, loser := fifelse(home_score > away_score, away_team, home_team)) |>\n    DT(, pa := fifelse(home_score >= away_score, away_score, home_score)) |>\n    DT(, winning_points := fifelse(home_score == away_score, 2, 4)) |>\n    DT(, losing_points := fifelse(home_score == away_score, 2, 0)) |>\n    DT(, bonus_points_winner := fifelse(home_tries >= 4, 1, 0)) |>\n    DT(, bonus_points_loser := fifelse(away_tries >= 4, 1, 0)) |>\n    DT(, bonus_points_loser := fifelse((home_score - away_score) <= 7,\n                                       bonus_points_loser + 1,\n                                       bonus_points_loser)) |>\n    DT(order(match_date)) |>\n    (\\(x) x[, .(team = winner, points = winning_points, wins = 1, pf, pa,\n                bonus_points = bonus_points_winner)] |>\n         rbind(x[, .(team = loser, points = losing_points, wins = 0,\n                     pf = pa, pa = pf,\n                     bonus_points = bonus_points_loser)]) |>\n         DT(, .(points = sum(points), wins = sum(wins),\n                points_for = sum(pf), points_against = sum(pa),\n                bonus_points = sum(bonus_points)),\n            .(team)) |>\n         DT(, points_difference := points_for - points_against) |>\n         DT(, points := points + bonus_points) |>\n         DT(order(points, wins, points_for, decreasing = TRUE)) |>\n         DT())() |>\n    DT() ->\n    pool_a\n```\n\nBelow are the results for all the games in Pool A. Not knowing the results\nbeforehand, these results seem acceptable. In hindsight, the first game did not\nplay out as indicated here. France won that game. This is the change we take\nrelying on predictions. Any team can upset the apple cart on that day and\noutplay themselves. We could still come out with the final result.\n\n\n```{ojs}\n//| label: fig-pool-a-matches\n//| fig-cap: The results for all the Pool A matches\n//| fig-cap-location: margin\nInputs.table(\n    poolAMatches.map(\n        d => (\n            {\n                match_date: d.match_date,\n                home_team: d.home_team,\n                home_score: d.home_score,\n                home_tries: d.home_tries,\n                away_team: d.away_team,\n                away_score: d.away_score,\n                away_tries: d.away_tries\n            }\n        )\n    ),\n    {\n        align: {\n            match_date: \"center\",\n            home_team: \"center\",\n            home_elo: \"center\",\n            home_predict: \"center\",\n            home_score: \"center\",\n            home_tries: \"center\",\n            away_team: \"center\",\n            away_elo: \"center\",\n            away_predict: \"center\",\n            away_tries: \"center\"\n        },\n        header: {\n            match_date: \"Date\",\n            home_team: \"Home Team\",\n            home_elo: \"Home Ranking\",\n            home_predict: \"Home Win Prediction\",\n            home_score: \"Home Score\",\n            home_tries: \"Home Tries Scored\",\n            away_team: \"Away Team\",\n            away_elo: \"Away Ranking\",\n            away_predict: \"Away Win Prediction\",\n            away_score: \"Away Score\",\n            away_tries: \"Away Tries Scored\"\n        },\n        rows: 100,\n        layout: \"fixed\"\n    }\n);\n```\n\n\nThe final results of all the pool games are shown below, starting with Pool A\nand ending with Pool D.\n\n\n```{ojs}\n//| label: fig-pool-a\n//| fig-cap: Pool A standings\n//| fig-cap-location: margin\nInputs.table(\n    poolA,\n    {\n        align: {\n            team: \"center\",\n            points: \"center\",\n            wins: \"center\",\n            points_for: \"center\",\n            points_against: \"center\",\n            bonus_points: \"center\",\n            points_difference: \"center\"\n        },\n        header: {\n            team: \"Team\",\n            points: \"Points\",\n            wins: \"Wins\",\n            points_for: \"Points For\",\n            points_against: \"Points Against\",\n            bonus_points: \"Bonus Points\",\n            points_difference: \"Points Difference\"\n        },\n        rows: 100,\n        layout: \"fixed\"\n    }\n);\n```\n\n```{ojs}\n//| label: fig-pool-b\n//| fig-cap: Pool B standings\n//| fig-cap-location: margin\nInputs.table(\n    poolB,\n    {\n        align: {\n            team: \"center\",\n            points: \"center\",\n            wins: \"center\",\n            points_for: \"center\",\n            points_against: \"center\",\n            bonus_points: \"center\",\n            points_difference: \"center\"\n        },\n        header: {\n            team: \"Team\",\n            points: \"Points\",\n            wins: \"Wins\",\n            points_for: \"Points For\",\n            points_against: \"Points Against\",\n            bonus_points: \"Bonus Points\",\n            points_difference: \"Points Difference\"\n        },\n        rows: 100,\n        layout: \"fixed\"\n    }\n);\n```\n\n```{ojs}\n//| label: fig-pool-c\n//| fig-cap: Pool C standings\n//| fig-cap-location: margin\nInputs.table(\n    poolC,\n    {\n        align: {\n            team: \"center\",\n            points: \"center\",\n            wins: \"center\",\n            points_for: \"center\",\n            points_against: \"center\",\n            bonus_points: \"center\",\n            points_difference: \"center\"\n        },\n        header: {\n            team: \"Team\",\n            points: \"Points\",\n            wins: \"Wins\",\n            points_for: \"Points For\",\n            points_against: \"Points Against\",\n            bonus_points: \"Bonus Points\",\n            points_difference: \"Points Difference\"\n        },\n        rows: 100,\n        layout: \"fixed\"\n    }\n);\n```\n\n```{ojs}\n//| label: fig-pool-d\n//| fig-cap: Pool D standings\n//| fig-cap-location: margin\nInputs.table(\n    poolD,\n    {\n        align: {\n            team: \"center\",\n            points: \"center\",\n            wins: \"center\",\n            points_for: \"center\",\n            points_against: \"center\",\n            bonus_points: \"center\",\n            points_difference: \"center\"\n        },\n        header: {\n            team: \"Team\",\n            points: \"Points\",\n            wins: \"Wins\",\n            points_for: \"Points For\",\n            points_against: \"Points Against\",\n            bonus_points: \"Bonus Points\",\n            points_difference: \"Points Difference\"\n        },\n        rows: 100,\n        layout: \"fixed\"\n    }\n);\n```\n\n\nWe can play out the rest of the tournament using these pool tables. Each of the\nquarter-finals, semi-finals, and finals are shown below.\n\n\n```{ojs}\n//| label: fig-quater-final-1\n//| fig-cap: Quarter Final 1\n//| fig-cap-location: margin\nInputs.table(\n    quarterFinal1.map(\n        d => (\n            {\n                team: d.team,\n                wins: d.wins,\n                points_for: d.points_for,\n                points_against: d.points_against,\n                bonus_points: d.bonus_points,\n                points_difference: d.points_difference\n            }\n        )\n    ),\n    {\n        align: {\n            team: \"center\",\n            wins: \"center\",\n            points_for: \"center\",\n            points_against: \"center\",\n            bonus_points: \"center\",\n            points_difference: \"center\"\n        },\n        header: {\n            team: \"Team\",\n            wins: \"Win\",\n            points_for: \"Points For\",\n            points_against: \"Points Against\",\n            bonus_points: \"Bonus Points\",\n            points_difference: \"Points Difference\"\n        },\n        rows: 100,\n        layout: \"fixed\"\n    }\n);\n```\n\n```{ojs}\n//| label: fig-quater-final-2\n//| fig-cap: Quarter Final 2\n//| fig-cap-location: margin\nInputs.table(\n    quarterFinal2.map(\n        d => (\n            {\n                team: d.team,\n                wins: d.wins,\n                points_for: d.points_for,\n                points_against: d.points_against,\n                bonus_points: d.bonus_points,\n                points_difference: d.points_difference\n            }\n        )\n    ),\n    {\n        align: {\n            team: \"center\",\n            wins: \"center\",\n            points_for: \"center\",\n            points_against: \"center\",\n            bonus_points: \"center\",\n            points_difference: \"center\"\n        },\n        header: {\n            team: \"Team\",\n            wins: \"Win\",\n            points_for: \"Points For\",\n            points_against: \"Points Against\",\n            bonus_points: \"Bonus Points\",\n            points_difference: \"Points Difference\"\n        },\n        rows: 100,\n        layout: \"fixed\"\n    }\n);\n```\n\n```{ojs}\n//| label: fig-quater-final-3\n//| fig-cap: Quarter Final 3\n//| fig-cap-location: margin\nInputs.table(\n    quarterFinal3.map(\n        d => (\n            {\n                team: d.team,\n                wins: d.wins,\n                points_for: d.points_for,\n                points_against: d.points_against,\n                bonus_points: d.bonus_points,\n                points_difference: d.points_difference\n            }\n        )\n    ),\n    {\n        align: {\n            team: \"center\",\n            wins: \"center\",\n            points_for: \"center\",\n            points_against: \"center\",\n            bonus_points: \"center\",\n            points_difference: \"center\"\n        },\n        header: {\n            team: \"Team\",\n            wins: \"Win\",\n            points_for: \"Points For\",\n            points_against: \"Points Against\",\n            bonus_points: \"Bonus Points\",\n            points_difference: \"Points Difference\"\n        },\n        rows: 100,\n        layout: \"fixed\"\n    }\n);\n```\n\n```{ojs}\n//| label: fig-quater-final-4\n//| fig-cap: Quarter Final 4\n//| fig-cap-location: margin\nInputs.table(\n    quarterFinal4.map(\n        d => (\n            {\n                team: d.team,\n                wins: d.wins,\n                points_for: d.points_for,\n                points_against: d.points_against,\n                bonus_points: d.bonus_points,\n                points_difference: d.points_difference\n            }\n        )\n    ),\n    {\n        align: {\n            team: \"center\",\n            wins: \"center\",\n            points_for: \"center\",\n            points_against: \"center\",\n            bonus_points: \"center\",\n            points_difference: \"center\"\n        },\n        header: {\n            team: \"Team\",\n            wins: \"Win\",\n            points_for: \"Points For\",\n            points_against: \"Points Against\",\n            bonus_points: \"Bonus Points\",\n            points_difference: \"Points Difference\"\n        },\n        rows: 100,\n        layout: \"fixed\"\n    }\n);\n```\n\n```{ojs}\n//| label: fig-semi-final-1\n//| fig-cap: The Semi Final 1\n//| fig-cap-location: margin\nInputs.table(\n    semiFinal1.map(\n        d => (\n            {\n                team: d.team,\n                wins: d.wins,\n                points_for: d.points_for,\n                points_against: d.points_against,\n                bonus_points: d.bonus_points,\n                points_difference: d.points_difference\n            }\n        )\n    ),\n    {\n        align: {\n            team: \"center\",\n            wins: \"center\",\n            points_for: \"center\",\n            points_against: \"center\",\n            bonus_points: \"center\",\n            points_difference: \"center\"\n        },\n        header: {\n            team: \"Team\",\n            wins: \"Win\",\n            points_for: \"Points For\",\n            points_against: \"Points Against\",\n            bonus_points: \"Bonus Points\",\n            points_difference: \"Points Difference\"\n        },\n        rows: 100,\n        layout: \"fixed\"\n    }\n);\n```\n\n```{ojs}\n//| label: fig-semi-final-2\n//| fig-cap: The Semi Final 2\n//| fig-cap-location: margin\nInputs.table(\n    semiFinal2.map(\n        d => (\n            {\n                team: d.team,\n                wins: d.wins,\n                points_for: d.points_for,\n                points_against: d.points_against,\n                bonus_points: d.bonus_points,\n                points_difference: d.points_difference\n            }\n        )\n    ),\n    {\n        align: {\n            team: \"center\",\n            wins: \"center\",\n            points_for: \"center\",\n            points_against: \"center\",\n            bonus_points: \"center\",\n            points_difference: \"center\"\n        },\n        header: {\n            team: \"Team\",\n            wins: \"Win\",\n            points_for: \"Points For\",\n            points_against: \"Points Against\",\n            bonus_points: \"Bonus Points\",\n            points_difference: \"Points Difference\"\n        },\n        rows: 100,\n        layout: \"fixed\"\n    }\n);\n```\n\n```{ojs}\n//| label: fig-bronze-final\n//| fig-cap: The Bronze Final\n//| fig-cap-location: margin\nInputs.table(\n    bronzeFinal.map(\n        d => (\n            {\n                team: d.team,\n                wins: d.wins,\n                points_for: d.points_for,\n                points_against: d.points_against,\n                bonus_points: d.bonus_points,\n                points_difference: d.points_difference\n            }\n        )\n    ),\n    {\n        align: {\n            team: \"center\",\n            wins: \"center\",\n            points_for: \"center\",\n            points_against: \"center\",\n            bonus_points: \"center\",\n            points_difference: \"center\"\n        },\n        header: {\n            team: \"Team\",\n            wins: \"Win\",\n            points_for: \"Points For\",\n            points_against: \"Points Against\",\n            bonus_points: \"Bonus Points\",\n            points_difference: \"Points Difference\"\n        },\n        rows: 100,\n        layout: \"fixed\"\n    }\n);\n```\n\n```{ojs}\n//| label: fig-final\n//| fig-cap: The Final\n//| fig-cap-location: margin\nInputs.table(\n    finalFinal.map(\n        d => (\n            {\n                team: d.team,\n                wins: d.wins,\n                points_for: d.points_for,\n                points_against: d.points_against,\n                bonus_points: d.bonus_points,\n                points_difference: d.points_difference\n            }\n        )\n    ),\n    {\n        align: {\n            team: \"center\",\n            wins: \"center\",\n            points_for: \"center\",\n            points_against: \"center\",\n            bonus_points: \"center\",\n            points_difference: \"center\"\n        },\n        header: {\n            team: \"Team\",\n            wins: \"Win\",\n            points_for: \"Points For\",\n            points_against: \"Points Against\",\n            bonus_points: \"Bonus Points\",\n            points_difference: \"Points Difference\"\n        },\n        rows: 100,\n        layout: \"fixed\"\n    }\n);\n```\n\n\nWeldone\nNew Zealand\nfor winning the Rugby World Cup final in 2023. Commiserations to\nSouth Africa.\nBest of luck to both teams. See you again in 2027.\n\nThis took way too long for me to complete. Now that I have all these pieces,\npredicting the next Rugby World Cup in 2027 will be easier. I still have the Six\nNations and The Rugby Championship for 2024 to look forward to predicting.",
    "supporting": [],
    "filters": [
      "rmarkdown/pagebreak.lua"
    ],
    "includes": {},
    "engineDependencies": {},
    "preserve": {},
    "postProcess": true
  }
}